test_keccak.vcd
$date
	Tue Oct 29 17:07:55 2024
$end
$version
	Icarus Verilog
$end
$timescale
	1ps
$end
$scope module test_keccak $end
$var wire 1 ! out_ready $end
$var wire 1 " out_buf_empty $end
$var wire 64 # out [63:0] $end
$var wire 1 $ ack $end
$var reg 1 % clk $end
$var reg 1 & gimme $end
$var reg 64 ' in [63:0] $end
$var reg 1 ( in_valid $end
$var reg 1 ) is_last $end
$var reg 2 * mode [1:0] $end
$var reg 1 + rst $end
$var reg 1 , start_calc $end
$var integer 32 - i [31:0] $end
$var integer 32 . j [31:0] $end
$scope module uut $end
$var wire 1 % clk $end
$var wire 1 / cunt_zero $end
$var wire 1 0 f_in_ready $end
$var wire 1 & gimme $end
$var wire 1 1 hash_init $end
$var wire 64 2 in [63:0] $end
$var wire 1 ( in_valid $end
$var wire 1 ) is_last $end
$var wire 1 3 load_en $end
$var wire 2 4 mode [1:0] $end
$var wire 1 ! out_ready $end
$var wire 1 + rst $end
$var wire 1 5 shift_en $end
$var wire 1 6 squeeze $end
$var wire 1 , start_calc $end
$var wire 1 7 takein_reg $end
$var wire 1 8 pad_out_ready $end
$var wire 64 9 pad_out [63:0] $end
$var wire 1 : pack $end
$var wire 1 ; p_out_ready $end
$var wire 64 < p_out [63:0] $end
$var wire 1 " out_buf_empty $end
$var wire 64 = out [63:0] $end
$var wire 1 > is_loaded $end
$var wire 1 ? f_out_ready $end
$var wire 1600 @ f_out [1599:0] $end
$var wire 1344 A f_in [1343:0] $end
$var wire 1 B f_ack $end
$var wire 1 C cntr_zero $end
$var wire 1 D calc $end
$var wire 1 E buf_ful $end
$var wire 1 $ ack $end
$var reg 5 F cntr_out [4:0] $end
$var reg 1 G last_in $end
$var reg 2 H mode_reg [1:0] $end
$var reg 1 I out_read $end
$var reg 1 J takein $end
$scope module f $end
$var wire 1 K accept $end
$var wire 1 B ack $end
$var wire 1 D calc_out $end
$var wire 1 % clk $end
$var wire 1 0 in_ready $end
$var wire 1 G last_in $end
$var wire 2 L mode [1:0] $end
$var wire 1 + reset $end
$var wire 1 6 squeeze $end
$var wire 1 M update $end
$var wire 24 N round_var [23:0] $end
$var wire 1600 O round_out [1599:0] $end
$var wire 64 P rc [63:0] $end
$var wire 1 : pack $end
$var wire 1344 Q in [1343:0] $end
$var reg 1 R calc $end
$var reg 23 S i [22:0] $end
$var reg 1 T last_in_reg $end
$var reg 1600 U out [1599:0] $end
$var reg 1 ? out_ready $end
$var reg 1600 V round_in [1599:0] $end
$scope module rconst_ $end
$var wire 24 W i [23:0] $end
$var reg 64 X rc [63:0] $end
$upscope $end
$scope module round_ $end
$var wire 1600 Y in [1599:0] $end
$var wire 64 Z round_const [63:0] $end
$var wire 1600 [ out [1599:0] $end
$scope begin L0[0] $end
$scope begin L1[0] $end
$upscope $end
$scope begin L1[1] $end
$upscope $end
$scope begin L1[2] $end
$upscope $end
$scope begin L1[3] $end
$upscope $end
$scope begin L1[4] $end
$upscope $end
$upscope $end
$scope begin L0[1] $end
$scope begin L1[0] $end
$upscope $end
$scope begin L1[1] $end
$upscope $end
$scope begin L1[2] $end
$upscope $end
$scope begin L1[3] $end
$upscope $end
$scope begin L1[4] $end
$upscope $end
$upscope $end
$scope begin L0[2] $end
$scope begin L1[0] $end
$upscope $end
$scope begin L1[1] $end
$upscope $end
$scope begin L1[2] $end
$upscope $end
$scope begin L1[3] $end
$upscope $end
$scope begin L1[4] $end
$upscope $end
$upscope $end
$scope begin L0[3] $end
$scope begin L1[0] $end
$upscope $end
$scope begin L1[1] $end
$upscope $end
$scope begin L1[2] $end
$upscope $end
$scope begin L1[3] $end
$upscope $end
$scope begin L1[4] $end
$upscope $end
$upscope $end
$scope begin L0[4] $end
$scope begin L1[0] $end
$upscope $end
$scope begin L1[1] $end
$upscope $end
$scope begin L1[2] $end
$upscope $end
$scope begin L1[3] $end
$upscope $end
$scope begin L1[4] $end
$upscope $end
$upscope $end
$scope begin L2[0] $end
$upscope $end
$scope begin L2[1] $end
$upscope $end
$scope begin L2[2] $end
$upscope $end
$scope begin L2[3] $end
$upscope $end
$scope begin L2[4] $end
$upscope $end
$scope begin L3[0] $end
$scope begin L4[0] $end
$upscope $end
$scope begin L4[1] $end
$upscope $end
$scope begin L4[2] $end
$upscope $end
$scope begin L4[3] $end
$upscope $end
$scope begin L4[4] $end
$upscope $end
$upscope $end
$scope begin L3[1] $end
$scope begin L4[0] $end
$upscope $end
$scope begin L4[1] $end
$upscope $end
$scope begin L4[2] $end
$upscope $end
$scope begin L4[3] $end
$upscope $end
$scope begin L4[4] $end
$upscope $end
$upscope $end
$scope begin L3[2] $end
$scope begin L4[0] $end
$upscope $end
$scope begin L4[1] $end
$upscope $end
$scope begin L4[2] $end
$upscope $end
$scope begin L4[3] $end
$upscope $end
$scope begin L4[4] $end
$upscope $end
$upscope $end
$scope begin L3[3] $end
$scope begin L4[0] $end
$upscope $end
$scope begin L4[1] $end
$upscope $end
$scope begin L4[2] $end
$upscope $end
$scope begin L4[3] $end
$upscope $end
$scope begin L4[4] $end
$upscope $end
$upscope $end
$scope begin L3[4] $end
$scope begin L4[0] $end
$upscope $end
$scope begin L4[1] $end
$upscope $end
$scope begin L4[2] $end
$upscope $end
$scope begin L4[3] $end
$upscope $end
$scope begin L4[4] $end
$upscope $end
$upscope $end
$scope begin L5[0] $end
$scope begin L6[0] $end
$upscope $end
$scope begin L6[1] $end
$upscope $end
$scope begin L6[2] $end
$upscope $end
$scope begin L6[3] $end
$upscope $end
$scope begin L6[4] $end
$upscope $end
$upscope $end
$scope begin L5[1] $end
$scope begin L6[0] $end
$upscope $end
$scope begin L6[1] $end
$upscope $end
$scope begin L6[2] $end
$upscope $end
$scope begin L6[3] $end
$upscope $end
$scope begin L6[4] $end
$upscope $end
$upscope $end
$scope begin L5[2] $end
$scope begin L6[0] $end
$upscope $end
$scope begin L6[1] $end
$upscope $end
$scope begin L6[2] $end
$upscope $end
$scope begin L6[3] $end
$upscope $end
$scope begin L6[4] $end
$upscope $end
$upscope $end
$scope begin L5[3] $end
$scope begin L6[0] $end
$upscope $end
$scope begin L6[1] $end
$upscope $end
$scope begin L6[2] $end
$upscope $end
$scope begin L6[3] $end
$upscope $end
$scope begin L6[4] $end
$upscope $end
$upscope $end
$scope begin L5[4] $end
$scope begin L6[0] $end
$upscope $end
$scope begin L6[1] $end
$upscope $end
$scope begin L6[2] $end
$upscope $end
$scope begin L6[3] $end
$upscope $end
$scope begin L6[4] $end
$upscope $end
$upscope $end
$scope begin L60[0] $end
$scope begin genblk9 $end
$upscope $end
$upscope $end
$scope begin L60[1] $end
$scope begin genblk9 $end
$upscope $end
$upscope $end
$scope begin L60[2] $end
$scope begin genblk10 $end
$upscope $end
$upscope $end
$scope begin L60[3] $end
$scope begin genblk9 $end
$upscope $end
$upscope $end
$scope begin L60[4] $end
$scope begin genblk10 $end
$upscope $end
$upscope $end
$scope begin L60[5] $end
$scope begin genblk10 $end
$upscope $end
$upscope $end
$scope begin L60[6] $end
$scope begin genblk10 $end
$upscope $end
$upscope $end
$scope begin L60[7] $end
$scope begin genblk9 $end
$upscope $end
$upscope $end
$scope begin L60[8] $end
$scope begin genblk10 $end
$upscope $end
$upscope $end
$scope begin L60[9] $end
$scope begin genblk10 $end
$upscope $end
$upscope $end
$scope begin L60[10] $end
$scope begin genblk10 $end
$upscope $end
$upscope $end
$scope begin L60[11] $end
$scope begin genblk10 $end
$upscope $end
$upscope $end
$scope begin L60[12] $end
$scope begin genblk10 $end
$upscope $end
$upscope $end
$scope begin L60[13] $end
$scope begin genblk10 $end
$upscope $end
$upscope $end
$scope begin L60[14] $end
$scope begin genblk10 $end
$upscope $end
$upscope $end
$scope begin L60[15] $end
$scope begin genblk9 $end
$upscope $end
$upscope $end
$scope begin L60[16] $end
$scope begin genblk10 $end
$upscope $end
$upscope $end
$scope begin L60[17] $end
$scope begin genblk10 $end
$upscope $end
$upscope $end
$scope begin L60[18] $end
$scope begin genblk10 $end
$upscope $end
$upscope $end
$scope begin L60[19] $end
$scope begin genblk10 $end
$upscope $end
$upscope $end
$scope begin L60[20] $end
$scope begin genblk10 $end
$upscope $end
$upscope $end
$scope begin L60[21] $end
$scope begin genblk10 $end
$upscope $end
$upscope $end
$scope begin L60[22] $end
$scope begin genblk10 $end
$upscope $end
$upscope $end
$scope begin L60[23] $end
$scope begin genblk10 $end
$upscope $end
$upscope $end
$scope begin L60[24] $end
$scope begin genblk10 $end
$upscope $end
$upscope $end
$scope begin L60[25] $end
$scope begin genblk10 $end
$upscope $end
$upscope $end
$scope begin L60[26] $end
$scope begin genblk10 $end
$upscope $end
$upscope $end
$scope begin L60[27] $end
$scope begin genblk10 $end
$upscope $end
$upscope $end
$scope begin L60[28] $end
$scope begin genblk10 $end
$upscope $end
$upscope $end
$scope begin L60[29] $end
$scope begin genblk10 $end
$upscope $end
$upscope $end
$scope begin L60[30] $end
$scope begin genblk10 $end
$upscope $end
$upscope $end
$scope begin L60[31] $end
$scope begin genblk9 $end
$upscope $end
$upscope $end
$scope begin L60[32] $end
$scope begin genblk10 $end
$upscope $end
$upscope $end
$scope begin L60[33] $end
$scope begin genblk10 $end
$upscope $end
$upscope $end
$scope begin L60[34] $end
$scope begin genblk10 $end
$upscope $end
$upscope $end
$scope begin L60[35] $end
$scope begin genblk10 $end
$upscope $end
$upscope $end
$scope begin L60[36] $end
$scope begin genblk10 $end
$upscope $end
$upscope $end
$scope begin L60[37] $end
$scope begin genblk10 $end
$upscope $end
$upscope $end
$scope begin L60[38] $end
$scope begin genblk10 $end
$upscope $end
$upscope $end
$scope begin L60[39] $end
$scope begin genblk10 $end
$upscope $end
$upscope $end
$scope begin L60[40] $end
$scope begin genblk10 $end
$upscope $end
$upscope $end
$scope begin L60[41] $end
$scope begin genblk10 $end
$upscope $end
$upscope $end
$scope begin L60[42] $end
$scope begin genblk10 $end
$upscope $end
$upscope $end
$scope begin L60[43] $end
$scope begin genblk10 $end
$upscope $end
$upscope $end
$scope begin L60[44] $end
$scope begin genblk10 $end
$upscope $end
$upscope $end
$scope begin L60[45] $end
$scope begin genblk10 $end
$upscope $end
$upscope $end
$scope begin L60[46] $end
$scope begin genblk10 $end
$upscope $end
$upscope $end
$scope begin L60[47] $end
$scope begin genblk10 $end
$upscope $end
$upscope $end
$scope begin L60[48] $end
$scope begin genblk10 $end
$upscope $end
$upscope $end
$scope begin L60[49] $end
$scope begin genblk10 $end
$upscope $end
$upscope $end
$scope begin L60[50] $end
$scope begin genblk10 $end
$upscope $end
$upscope $end
$scope begin L60[51] $end
$scope begin genblk10 $end
$upscope $end
$upscope $end
$scope begin L60[52] $end
$scope begin genblk10 $end
$upscope $end
$upscope $end
$scope begin L60[53] $end
$scope begin genblk10 $end
$upscope $end
$upscope $end
$scope begin L60[54] $end
$scope begin genblk10 $end
$upscope $end
$upscope $end
$scope begin L60[55] $end
$scope begin genblk10 $end
$upscope $end
$upscope $end
$scope begin L60[56] $end
$scope begin genblk10 $end
$upscope $end
$upscope $end
$scope begin L60[57] $end
$scope begin genblk10 $end
$upscope $end
$upscope $end
$scope begin L60[58] $end
$scope begin genblk10 $end
$upscope $end
$upscope $end
$scope begin L60[59] $end
$scope begin genblk10 $end
$upscope $end
$upscope $end
$scope begin L60[60] $end
$scope begin genblk10 $end
$upscope $end
$upscope $end
$scope begin L60[61] $end
$scope begin genblk10 $end
$upscope $end
$upscope $end
$scope begin L60[62] $end
$scope begin genblk10 $end
$upscope $end
$upscope $end
$scope begin L60[63] $end
$scope begin genblk9 $end
$upscope $end
$upscope $end
$scope begin L7[0] $end
$scope begin L8[0] $end
$upscope $end
$scope begin L8[1] $end
$scope begin genblk13 $end
$upscope $end
$upscope $end
$scope begin L8[2] $end
$scope begin genblk13 $end
$upscope $end
$upscope $end
$scope begin L8[3] $end
$scope begin genblk13 $end
$upscope $end
$upscope $end
$scope begin L8[4] $end
$scope begin genblk13 $end
$upscope $end
$upscope $end
$upscope $end
$scope begin L7[1] $end
$scope begin L8[0] $end
$scope begin genblk13 $end
$upscope $end
$upscope $end
$scope begin L8[1] $end
$scope begin genblk13 $end
$upscope $end
$upscope $end
$scope begin L8[2] $end
$scope begin genblk13 $end
$upscope $end
$upscope $end
$scope begin L8[3] $end
$scope begin genblk13 $end
$upscope $end
$upscope $end
$scope begin L8[4] $end
$scope begin genblk13 $end
$upscope $end
$upscope $end
$upscope $end
$scope begin L7[2] $end
$scope begin L8[0] $end
$scope begin genblk13 $end
$upscope $end
$upscope $end
$scope begin L8[1] $end
$scope begin genblk13 $end
$upscope $end
$upscope $end
$scope begin L8[2] $end
$scope begin genblk13 $end
$upscope $end
$upscope $end
$scope begin L8[3] $end
$scope begin genblk13 $end
$upscope $end
$upscope $end
$scope begin L8[4] $end
$scope begin genblk13 $end
$upscope $end
$upscope $end
$upscope $end
$scope begin L7[3] $end
$scope begin L8[0] $end
$scope begin genblk13 $end
$upscope $end
$upscope $end
$scope begin L8[1] $end
$scope begin genblk13 $end
$upscope $end
$upscope $end
$scope begin L8[2] $end
$scope begin genblk13 $end
$upscope $end
$upscope $end
$scope begin L8[3] $end
$scope begin genblk13 $end
$upscope $end
$upscope $end
$scope begin L8[4] $end
$scope begin genblk13 $end
$upscope $end
$upscope $end
$upscope $end
$scope begin L7[4] $end
$scope begin L8[0] $end
$scope begin genblk13 $end
$upscope $end
$upscope $end
$scope begin L8[1] $end
$scope begin genblk13 $end
$upscope $end
$upscope $end
$scope begin L8[2] $end
$scope begin genblk13 $end
$upscope $end
$upscope $end
$scope begin L8[3] $end
$scope begin genblk13 $end
$upscope $end
$upscope $end
$scope begin L8[4] $end
$scope begin genblk13 $end
$upscope $end
$upscope $end
$upscope $end
$scope begin L99[0] $end
$scope begin L100[0] $end
$upscope $end
$scope begin L100[1] $end
$upscope $end
$scope begin L100[2] $end
$upscope $end
$scope begin L100[3] $end
$upscope $end
$scope begin L100[4] $end
$upscope $end
$upscope $end
$scope begin L99[1] $end
$scope begin L100[0] $end
$upscope $end
$scope begin L100[1] $end
$upscope $end
$scope begin L100[2] $end
$upscope $end
$scope begin L100[3] $end
$upscope $end
$scope begin L100[4] $end
$upscope $end
$upscope $end
$scope begin L99[2] $end
$scope begin L100[0] $end
$upscope $end
$scope begin L100[1] $end
$upscope $end
$scope begin L100[2] $end
$upscope $end
$scope begin L100[3] $end
$upscope $end
$scope begin L100[4] $end
$upscope $end
$upscope $end
$scope begin L99[3] $end
$scope begin L100[0] $end
$upscope $end
$scope begin L100[1] $end
$upscope $end
$scope begin L100[2] $end
$upscope $end
$scope begin L100[3] $end
$upscope $end
$scope begin L100[4] $end
$upscope $end
$upscope $end
$scope begin L99[4] $end
$scope begin L100[0] $end
$upscope $end
$scope begin L100[1] $end
$upscope $end
$scope begin L100[2] $end
$upscope $end
$scope begin L100[3] $end
$upscope $end
$scope begin L100[4] $end
$upscope $end
$upscope $end
$upscope $end
$upscope $end
$scope module fifo $end
$var wire 1 % clk $end
$var wire 1 & rd_en $end
$var wire 1 + rst $end
$var wire 1 ; wr_en $end
$var wire 64 \ buf_in [63:0] $end
$var reg 1 " buf_empty $end
$var reg 1 E buf_full $end
$var reg 64 ] buf_out [63:0] $end
$var reg 7 ^ fifo_counter [6:0] $end
$var reg 6 _ rd_ptr [5:0] $end
$var reg 6 ` wr_ptr [5:0] $end
$upscope $end
$scope module pad $end
$var wire 1 % clk $end
$var wire 64 a in [63:0] $end
$var wire 1 ( in_valid $end
$var wire 1 ) is_last $end
$var wire 2 b mode [1:0] $end
$var wire 64 c out [63:0] $end
$var wire 1 + rst $end
$var wire 1 , start_calc $end
$var wire 1 J takein $end
$var wire 1 C cntr_zero $end
$var reg 1 $ ack $end
$var reg 5 d cntr [4:0] $end
$var reg 1 e latch_last $end
$var reg 1 f latch_latch_last $end
$var reg 1 8 out_ready $end
$var reg 1 g pad $end
$var reg 64 h pad_out [63:0] $end
$var reg 1 7 takein_reg $end
$upscope $end
$scope module piso $end
$var wire 1 % clk $end
$var wire 1 / count_zero $end
$var wire 1344 i data_in [1343:0] $end
$var wire 1 ? load_en $end
$var wire 1 : pack $end
$var wire 1 + rst $end
$var wire 1 5 shift_en $end
$var wire 64 j data_out [63:0] $end
$var reg 1344 k data [1343:0] $end
$var reg 1 ; out_ready $end
$upscope $end
$scope module sipo $end
$var wire 1 D calc $end
$var wire 1 % clk $end
$var wire 1 C cntr_zero $end
$var wire 64 l data_in [63:0] $end
$var wire 1 1 hash_init $end
$var wire 1 3 load_en $end
$var reg 1344 m data_out [1343:0] $end
$var reg 1 > is_loaded $end
$var reg 1 n is_loaded_temp $end
$upscope $end
$upscope $end
$scope task error $end
$upscope $end
$upscope $end
$enddefinitions $end
#0
$dumpvars
xn
b0 m
b0 l
b0 k
b0 j
bx i
b0 h
0g
0f
0e
b0 d
b0 c
b0 b
b0 a
b0 `
b0 _
b0 ^
b0 ]
b0 \
bx [
bx0000000000000000000000000000000x000000000000000x0000000x000x0xx Z
bx Y
bx0000000000000000000000000000000x000000000000000x0000000x000x0xx X
bx0 W
bx V
bx U
0T
bx S
xR
b0 Q
bx0000000000000000000000000000000x000000000000000x0000000x000x0xx P
bx O
bx0 N
xM
b0 L
0K
0J
0I
b0 H
0G
b0 F
0E
xD
0C
0B
b0 A
bx @
x?
0>
b0 =
b0 <
0;
x:
b0 9
08
07
06
05
b0 4
03
b0 2
11
00
1/
bx .
bx -
0,
1+
b0 *
0)
0(
b0 '
0&
0%
0$
b0 #
1"
0!
$end
#2000000000000
b0 O
b0 [
b0 P
b0 X
b0 Z
0M
b0 V
b0 Y
b0 i
b0 N
b0 W
b0 S
0D
0R
0:
0?
b0 @
b0 U
0n
1%
#4000000000000
0%
#6000000000000
1%
#8000000000000
0%
#9000000000000
1(
b1111000011100001110100101100001110110100101001011001011010000111 '
b1111000011100001110100101100001110110100101001011001011010000111 2
b1111000011100001110100101100001110110100101001011001011010000111 a
b1 *
b1 4
b1 b
1,
0+
#10000000000000
13
1J
b1 H
b1 L
18
b10001 d
1%
#12000000000000
0%
#13000000000000
01
0,
#14000000000000
b10000 d
1$
b1111000011100001110100101100001110110100101001011001011010000111 9
b1111000011100001110100101100001110110100101001011001011010000111 c
b1111000011100001110100101100001110110100101001011001011010000111 l
b1111000011100001110100101100001110110100101001011001011010000111 h
17
1%
#16000000000000
0%
#17000000000000
b1111000111100010110100111100010010110101101001101001011110001000 '
b1111000111100010110100111100010010110101101001101001011110001000 2
b1111000111100010110100111100010010110101101001101001011110001000 a
b0 -
#18000000000000
b1111000111100010110100111100010010110101101001101001011110001000 9
b1111000111100010110100111100010010110101101001101001011110001000 c
b1111000111100010110100111100010010110101101001101001011110001000 l
b1111000111100010110100111100010010110101101001101001011110001000 h
1$
b1111 d
b1111000011100001110100101100001110110100101001011001011010000111 A
b1111000011100001110100101100001110110100101001011001011010000111 Q
b1111000011100001110100101100001110110100101001011001011010000111 m
1%
#20000000000000
0%
#21000000000000
b1111001011100011110101001100010110110110101001111001100010001001 '
b1111001011100011110101001100010110110110101001111001100010001001 2
b1111001011100011110101001100010110110110101001111001100010001001 a
b1 -
#22000000000000
b1110 d
b1111001011100011110101001100010110110110101001111001100010001001 9
b1111001011100011110101001100010110110110101001111001100010001001 c
b1111001011100011110101001100010110110110101001111001100010001001 l
b1111001011100011110101001100010110110110101001111001100010001001 h
1$
b11110000111000011101001011000011101101001010010110010110100001111111000111100010110100111100010010110101101001101001011110001000 A
b11110000111000011101001011000011101101001010010110010110100001111111000111100010110100111100010010110101101001101001011110001000 Q
b11110000111000011101001011000011101101001010010110010110100001111111000111100010110100111100010010110101101001101001011110001000 m
1%
#24000000000000
0%
#25000000000000
b1111001111100100110101011100011010110111101010001001100110001010 '
b1111001111100100110101011100011010110111101010001001100110001010 2
b1111001111100100110101011100011010110111101010001001100110001010 a
b10 -
#26000000000000
b1111001111100100110101011100011010110111101010001001100110001010 9
b1111001111100100110101011100011010110111101010001001100110001010 c
b1111001111100100110101011100011010110111101010001001100110001010 l
b1111001111100100110101011100011010110111101010001001100110001010 h
1$
b1101 d
b111100001110000111010010110000111011010010100101100101101000011111110001111000101101001111000100101101011010011010010111100010001111001011100011110101001100010110110110101001111001100010001001 A
b111100001110000111010010110000111011010010100101100101101000011111110001111000101101001111000100101101011010011010010111100010001111001011100011110101001100010110110110101001111001100010001001 Q
b111100001110000111010010110000111011010010100101100101101000011111110001111000101101001111000100101101011010011010010111100010001111001011100011110101001100010110110110101001111001100010001001 m
1%
#28000000000000
0%
#29000000000000
b1111010011100101110101101100011110111000101010011001101010001011 '
b1111010011100101110101101100011110111000101010011001101010001011 2
b1111010011100101110101101100011110111000101010011001101010001011 a
b11 -
#30000000000000
b1100 d
b1111010011100101110101101100011110111000101010011001101010001011 9
b1111010011100101110101101100011110111000101010011001101010001011 c
b1111010011100101110101101100011110111000101010011001101010001011 l
b1111010011100101110101101100011110111000101010011001101010001011 h
1$
b1111000011100001110100101100001110110100101001011001011010000111111100011110001011010011110001001011010110100110100101111000100011110010111000111101010011000101101101101010011110011000100010011111001111100100110101011100011010110111101010001001100110001010 A
b1111000011100001110100101100001110110100101001011001011010000111111100011110001011010011110001001011010110100110100101111000100011110010111000111101010011000101101101101010011110011000100010011111001111100100110101011100011010110111101010001001100110001010 Q
b1111000011100001110100101100001110110100101001011001011010000111111100011110001011010011110001001011010110100110100101111000100011110010111000111101010011000101101101101010011110011000100010011111001111100100110101011100011010110111101010001001100110001010 m
1%
#32000000000000
0%
#33000000000000
b1111010111100110110101111100100010111001101010101001101110001100 '
b1111010111100110110101111100100010111001101010101001101110001100 2
b1111010111100110110101111100100010111001101010101001101110001100 a
b100 -
#34000000000000
b1111010111100110110101111100100010111001101010101001101110001100 9
b1111010111100110110101111100100010111001101010101001101110001100 c
b1111010111100110110101111100100010111001101010101001101110001100 l
b1111010111100110110101111100100010111001101010101001101110001100 h
1$
b1011 d
b11110000111000011101001011000011101101001010010110010110100001111111000111100010110100111100010010110101101001101001011110001000111100101110001111010100110001011011011010100111100110001000100111110011111001001101010111000110101101111010100010011001100010101111010011100101110101101100011110111000101010011001101010001011 A
b11110000111000011101001011000011101101001010010110010110100001111111000111100010110100111100010010110101101001101001011110001000111100101110001111010100110001011011011010100111100110001000100111110011111001001101010111000110101101111010100010011001100010101111010011100101110101101100011110111000101010011001101010001011 Q
b11110000111000011101001011000011101101001010010110010110100001111111000111100010110100111100010010110101101001101001011110001000111100101110001111010100110001011011011010100111100110001000100111110011111001001101010111000110101101111010100010011001100010101111010011100101110101101100011110111000101010011001101010001011 m
1%
#36000000000000
0%
#37000000000000
0(
b101 -
#38000000000000
03
b0 9
b0 c
b0 l
b0 h
0$
08
b111100001110000111010010110000111011010010100101100101101000011111110001111000101101001111000100101101011010011010010111100010001111001011100011110101001100010110110110101001111001100010001001111100111110010011010101110001101011011110101000100110011000101011110100111001011101011011000111101110001010100110011010100010111111010111100110110101111100100010111001101010101001101110001100 A
b111100001110000111010010110000111011010010100101100101101000011111110001111000101101001111000100101101011010011010010111100010001111001011100011110101001100010110110110101001111001100010001001111100111110010011010101110001101011011110101000100110011000101011110100111001011101011011000111101110001010100110011010100010111111010111100110110101111100100010111001101010101001101110001100 Q
b111100001110000111010010110000111011010010100101100101101000011111110001111000101101001111000100101101011010011010010111100010001111001011100011110101001100010110110110101001111001100010001001111100111110010011010101110001101011011110101000100110011000101011110100111001011101011011000111101110001010100110011010100010111111010111100110110101111100100010111001101010101001101110001100 m
1%
