test_keccak.vcd
$date
	Sat Oct 26 15:37:40 2024
$end
$version
	Icarus Verilog
$end
$timescale
	1ps
$end
$scope module test_keccak $end
$var wire 1 ! out_ready $end
$var wire 1 " out_buf_empty $end
$var wire 64 # out [63:0] $end
$var wire 1 $ ack $end
$var reg 1 % clk $end
$var reg 1 & gimme $end
$var reg 64 ' in [63:0] $end
$var reg 1 ( in_valid $end
$var reg 1 ) is_last $end
$var reg 2 * mode [1:0] $end
$var reg 1 + rst $end
$var reg 1 , start_calc $end
$var integer 32 - i [31:0] $end
$scope module uut $end
$var wire 1 % clk $end
$var wire 1 . f_in_ready $end
$var wire 1 & gimme $end
$var wire 1 / hash_init $end
$var wire 64 0 in [63:0] $end
$var wire 1 ( in_valid $end
$var wire 1 ) is_last $end
$var wire 1 1 load_en $end
$var wire 2 2 mode [1:0] $end
$var wire 1 ! out_ready $end
$var wire 1 + rst $end
$var wire 1 3 shift_en $end
$var wire 1 4 squeeze $end
$var wire 1 , start_calc $end
$var wire 1 5 takein_reg $end
$var wire 1 6 pad_out_ready $end
$var wire 64 7 pad_out [63:0] $end
$var wire 1 8 p_out_ready $end
$var wire 64 9 p_out [63:0] $end
$var wire 1 " out_buf_empty $end
$var wire 64 : out [63:0] $end
$var wire 1 ; is_loaded $end
$var wire 1 < f_out_ready $end
$var wire 1600 = f_out [1599:0] $end
$var wire 1344 > f_in [1343:0] $end
$var wire 1 ? f_ack $end
$var wire 1 @ cunt_zero $end
$var wire 1 A cntr_zero $end
$var wire 1 B buf_ful $end
$var wire 1 $ ack $end
$var reg 5 C cntr_out [4:0] $end
$var reg 2 D mode_reg [1:0] $end
$var reg 1 E out_read $end
$var reg 1 F takein $end
$scope module f $end
$var wire 1 G accept $end
$var wire 1 ? ack $end
$var wire 1 % clk $end
$var wire 1 . in_ready $end
$var wire 2 H mode [1:0] $end
$var wire 1 + reset $end
$var wire 1 4 squeeze $end
$var wire 1 I update $end
$var wire 24 J round_var [23:0] $end
$var wire 1600 K round_out [1599:0] $end
$var wire 64 L rc [63:0] $end
$var wire 1344 M in [1343:0] $end
$var reg 1 N calc $end
$var reg 23 O i [22:0] $end
$var reg 1600 P out [1599:0] $end
$var reg 1 < out_ready $end
$var reg 1600 Q round_in [1599:0] $end
$scope module rconst_ $end
$var wire 24 R i [23:0] $end
$var reg 64 S rc [63:0] $end
$upscope $end
$scope module round_ $end
$var wire 1600 T in [1599:0] $end
$var wire 64 U round_const [63:0] $end
$var wire 1600 V out [1599:0] $end
$scope begin L0[0] $end
$scope begin L1[0] $end
$upscope $end
$scope begin L1[1] $end
$upscope $end
$scope begin L1[2] $end
$upscope $end
$scope begin L1[3] $end
$upscope $end
$scope begin L1[4] $end
$upscope $end
$upscope $end
$scope begin L0[1] $end
$scope begin L1[0] $end
$upscope $end
$scope begin L1[1] $end
$upscope $end
$scope begin L1[2] $end
$upscope $end
$scope begin L1[3] $end
$upscope $end
$scope begin L1[4] $end
$upscope $end
$upscope $end
$scope begin L0[2] $end
$scope begin L1[0] $end
$upscope $end
$scope begin L1[1] $end
$upscope $end
$scope begin L1[2] $end
$upscope $end
$scope begin L1[3] $end
$upscope $end
$scope begin L1[4] $end
$upscope $end
$upscope $end
$scope begin L0[3] $end
$scope begin L1[0] $end
$upscope $end
$scope begin L1[1] $end
$upscope $end
$scope begin L1[2] $end
$upscope $end
$scope begin L1[3] $end
$upscope $end
$scope begin L1[4] $end
$upscope $end
$upscope $end
$scope begin L0[4] $end
$scope begin L1[0] $end
$upscope $end
$scope begin L1[1] $end
$upscope $end
$scope begin L1[2] $end
$upscope $end
$scope begin L1[3] $end
$upscope $end
$scope begin L1[4] $end
$upscope $end
$upscope $end
$scope begin L2[0] $end
$upscope $end
$scope begin L2[1] $end
$upscope $end
$scope begin L2[2] $end
$upscope $end
$scope begin L2[3] $end
$upscope $end
$scope begin L2[4] $end
$upscope $end
$scope begin L3[0] $end
$scope begin L4[0] $end
$upscope $end
$scope begin L4[1] $end
$upscope $end
$scope begin L4[2] $end
$upscope $end
$scope begin L4[3] $end
$upscope $end
$scope begin L4[4] $end
$upscope $end
$upscope $end
$scope begin L3[1] $end
$scope begin L4[0] $end
$upscope $end
$scope begin L4[1] $end
$upscope $end
$scope begin L4[2] $end
$upscope $end
$scope begin L4[3] $end
$upscope $end
$scope begin L4[4] $end
$upscope $end
$upscope $end
$scope begin L3[2] $end
$scope begin L4[0] $end
$upscope $end
$scope begin L4[1] $end
$upscope $end
$scope begin L4[2] $end
$upscope $end
$scope begin L4[3] $end
$upscope $end
$scope begin L4[4] $end
$upscope $end
$upscope $end
$scope begin L3[3] $end
$scope begin L4[0] $end
$upscope $end
$scope begin L4[1] $end
$upscope $end
$scope begin L4[2] $end
$upscope $end
$scope begin L4[3] $end
$upscope $end
$scope begin L4[4] $end
$upscope $end
$upscope $end
$scope begin L3[4] $end
$scope begin L4[0] $end
$upscope $end
$scope begin L4[1] $end
$upscope $end
$scope begin L4[2] $end
$upscope $end
$scope begin L4[3] $end
$upscope $end
$scope begin L4[4] $end
$upscope $end
$upscope $end
$scope begin L5[0] $end
$scope begin L6[0] $end
$upscope $end
$scope begin L6[1] $end
$upscope $end
$scope begin L6[2] $end
$upscope $end
$scope begin L6[3] $end
$upscope $end
$scope begin L6[4] $end
$upscope $end
$upscope $end
$scope begin L5[1] $end
$scope begin L6[0] $end
$upscope $end
$scope begin L6[1] $end
$upscope $end
$scope begin L6[2] $end
$upscope $end
$scope begin L6[3] $end
$upscope $end
$scope begin L6[4] $end
$upscope $end
$upscope $end
$scope begin L5[2] $end
$scope begin L6[0] $end
$upscope $end
$scope begin L6[1] $end
$upscope $end
$scope begin L6[2] $end
$upscope $end
$scope begin L6[3] $end
$upscope $end
$scope begin L6[4] $end
$upscope $end
$upscope $end
$scope begin L5[3] $end
$scope begin L6[0] $end
$upscope $end
$scope begin L6[1] $end
$upscope $end
$scope begin L6[2] $end
$upscope $end
$scope begin L6[3] $end
$upscope $end
$scope begin L6[4] $end
$upscope $end
$upscope $end
$scope begin L5[4] $end
$scope begin L6[0] $end
$upscope $end
$scope begin L6[1] $end
$upscope $end
$scope begin L6[2] $end
$upscope $end
$scope begin L6[3] $end
$upscope $end
$scope begin L6[4] $end
$upscope $end
$upscope $end
$scope begin L60[0] $end
$scope begin genblk9 $end
$upscope $end
$upscope $end
$scope begin L60[1] $end
$scope begin genblk9 $end
$upscope $end
$upscope $end
$scope begin L60[2] $end
$scope begin genblk10 $end
$upscope $end
$upscope $end
$scope begin L60[3] $end
$scope begin genblk9 $end
$upscope $end
$upscope $end
$scope begin L60[4] $end
$scope begin genblk10 $end
$upscope $end
$upscope $end
$scope begin L60[5] $end
$scope begin genblk10 $end
$upscope $end
$upscope $end
$scope begin L60[6] $end
$scope begin genblk10 $end
$upscope $end
$upscope $end
$scope begin L60[7] $end
$scope begin genblk9 $end
$upscope $end
$upscope $end
$scope begin L60[8] $end
$scope begin genblk10 $end
$upscope $end
$upscope $end
$scope begin L60[9] $end
$scope begin genblk10 $end
$upscope $end
$upscope $end
$scope begin L60[10] $end
$scope begin genblk10 $end
$upscope $end
$upscope $end
$scope begin L60[11] $end
$scope begin genblk10 $end
$upscope $end
$upscope $end
$scope begin L60[12] $end
$scope begin genblk10 $end
$upscope $end
$upscope $end
$scope begin L60[13] $end
$scope begin genblk10 $end
$upscope $end
$upscope $end
$scope begin L60[14] $end
$scope begin genblk10 $end
$upscope $end
$upscope $end
$scope begin L60[15] $end
$scope begin genblk9 $end
$upscope $end
$upscope $end
$scope begin L60[16] $end
$scope begin genblk10 $end
$upscope $end
$upscope $end
$scope begin L60[17] $end
$scope begin genblk10 $end
$upscope $end
$upscope $end
$scope begin L60[18] $end
$scope begin genblk10 $end
$upscope $end
$upscope $end
$scope begin L60[19] $end
$scope begin genblk10 $end
$upscope $end
$upscope $end
$scope begin L60[20] $end
$scope begin genblk10 $end
$upscope $end
$upscope $end
$scope begin L60[21] $end
$scope begin genblk10 $end
$upscope $end
$upscope $end
$scope begin L60[22] $end
$scope begin genblk10 $end
$upscope $end
$upscope $end
$scope begin L60[23] $end
$scope begin genblk10 $end
$upscope $end
$upscope $end
$scope begin L60[24] $end
$scope begin genblk10 $end
$upscope $end
$upscope $end
$scope begin L60[25] $end
$scope begin genblk10 $end
$upscope $end
$upscope $end
$scope begin L60[26] $end
$scope begin genblk10 $end
$upscope $end
$upscope $end
$scope begin L60[27] $end
$scope begin genblk10 $end
$upscope $end
$upscope $end
$scope begin L60[28] $end
$scope begin genblk10 $end
$upscope $end
$upscope $end
$scope begin L60[29] $end
$scope begin genblk10 $end
$upscope $end
$upscope $end
$scope begin L60[30] $end
$scope begin genblk10 $end
$upscope $end
$upscope $end
$scope begin L60[31] $end
$scope begin genblk9 $end
$upscope $end
$upscope $end
$scope begin L60[32] $end
$scope begin genblk10 $end
$upscope $end
$upscope $end
$scope begin L60[33] $end
$scope begin genblk10 $end
$upscope $end
$upscope $end
$scope begin L60[34] $end
$scope begin genblk10 $end
$upscope $end
$upscope $end
$scope begin L60[35] $end
$scope begin genblk10 $end
$upscope $end
$upscope $end
$scope begin L60[36] $end
$scope begin genblk10 $end
$upscope $end
$upscope $end
$scope begin L60[37] $end
$scope begin genblk10 $end
$upscope $end
$upscope $end
$scope begin L60[38] $end
$scope begin genblk10 $end
$upscope $end
$upscope $end
$scope begin L60[39] $end
$scope begin genblk10 $end
$upscope $end
$upscope $end
$scope begin L60[40] $end
$scope begin genblk10 $end
$upscope $end
$upscope $end
$scope begin L60[41] $end
$scope begin genblk10 $end
$upscope $end
$upscope $end
$scope begin L60[42] $end
$scope begin genblk10 $end
$upscope $end
$upscope $end
$scope begin L60[43] $end
$scope begin genblk10 $end
$upscope $end
$upscope $end
$scope begin L60[44] $end
$scope begin genblk10 $end
$upscope $end
$upscope $end
$scope begin L60[45] $end
$scope begin genblk10 $end
$upscope $end
$upscope $end
$scope begin L60[46] $end
$scope begin genblk10 $end
$upscope $end
$upscope $end
$scope begin L60[47] $end
$scope begin genblk10 $end
$upscope $end
$upscope $end
$scope begin L60[48] $end
$scope begin genblk10 $end
$upscope $end
$upscope $end
$scope begin L60[49] $end
$scope begin genblk10 $end
$upscope $end
$upscope $end
$scope begin L60[50] $end
$scope begin genblk10 $end
$upscope $end
$upscope $end
$scope begin L60[51] $end
$scope begin genblk10 $end
$upscope $end
$upscope $end
$scope begin L60[52] $end
$scope begin genblk10 $end
$upscope $end
$upscope $end
$scope begin L60[53] $end
$scope begin genblk10 $end
$upscope $end
$upscope $end
$scope begin L60[54] $end
$scope begin genblk10 $end
$upscope $end
$upscope $end
$scope begin L60[55] $end
$scope begin genblk10 $end
$upscope $end
$upscope $end
$scope begin L60[56] $end
$scope begin genblk10 $end
$upscope $end
$upscope $end
$scope begin L60[57] $end
$scope begin genblk10 $end
$upscope $end
$upscope $end
$scope begin L60[58] $end
$scope begin genblk10 $end
$upscope $end
$upscope $end
$scope begin L60[59] $end
$scope begin genblk10 $end
$upscope $end
$upscope $end
$scope begin L60[60] $end
$scope begin genblk10 $end
$upscope $end
$upscope $end
$scope begin L60[61] $end
$scope begin genblk10 $end
$upscope $end
$upscope $end
$scope begin L60[62] $end
$scope begin genblk10 $end
$upscope $end
$upscope $end
$scope begin L60[63] $end
$scope begin genblk9 $end
$upscope $end
$upscope $end
$scope begin L7[0] $end
$scope begin L8[0] $end
$upscope $end
$scope begin L8[1] $end
$scope begin genblk13 $end
$upscope $end
$upscope $end
$scope begin L8[2] $end
$scope begin genblk13 $end
$upscope $end
$upscope $end
$scope begin L8[3] $end
$scope begin genblk13 $end
$upscope $end
$upscope $end
$scope begin L8[4] $end
$scope begin genblk13 $end
$upscope $end
$upscope $end
$upscope $end
$scope begin L7[1] $end
$scope begin L8[0] $end
$scope begin genblk13 $end
$upscope $end
$upscope $end
$scope begin L8[1] $end
$scope begin genblk13 $end
$upscope $end
$upscope $end
$scope begin L8[2] $end
$scope begin genblk13 $end
$upscope $end
$upscope $end
$scope begin L8[3] $end
$scope begin genblk13 $end
$upscope $end
$upscope $end
$scope begin L8[4] $end
$scope begin genblk13 $end
$upscope $end
$upscope $end
$upscope $end
$scope begin L7[2] $end
$scope begin L8[0] $end
$scope begin genblk13 $end
$upscope $end
$upscope $end
$scope begin L8[1] $end
$scope begin genblk13 $end
$upscope $end
$upscope $end
$scope begin L8[2] $end
$scope begin genblk13 $end
$upscope $end
$upscope $end
$scope begin L8[3] $end
$scope begin genblk13 $end
$upscope $end
$upscope $end
$scope begin L8[4] $end
$scope begin genblk13 $end
$upscope $end
$upscope $end
$upscope $end
$scope begin L7[3] $end
$scope begin L8[0] $end
$scope begin genblk13 $end
$upscope $end
$upscope $end
$scope begin L8[1] $end
$scope begin genblk13 $end
$upscope $end
$upscope $end
$scope begin L8[2] $end
$scope begin genblk13 $end
$upscope $end
$upscope $end
$scope begin L8[3] $end
$scope begin genblk13 $end
$upscope $end
$upscope $end
$scope begin L8[4] $end
$scope begin genblk13 $end
$upscope $end
$upscope $end
$upscope $end
$scope begin L7[4] $end
$scope begin L8[0] $end
$scope begin genblk13 $end
$upscope $end
$upscope $end
$scope begin L8[1] $end
$scope begin genblk13 $end
$upscope $end
$upscope $end
$scope begin L8[2] $end
$scope begin genblk13 $end
$upscope $end
$upscope $end
$scope begin L8[3] $end
$scope begin genblk13 $end
$upscope $end
$upscope $end
$scope begin L8[4] $end
$scope begin genblk13 $end
$upscope $end
$upscope $end
$upscope $end
$scope begin L99[0] $end
$scope begin L100[0] $end
$upscope $end
$scope begin L100[1] $end
$upscope $end
$scope begin L100[2] $end
$upscope $end
$scope begin L100[3] $end
$upscope $end
$scope begin L100[4] $end
$upscope $end
$upscope $end
$scope begin L99[1] $end
$scope begin L100[0] $end
$upscope $end
$scope begin L100[1] $end
$upscope $end
$scope begin L100[2] $end
$upscope $end
$scope begin L100[3] $end
$upscope $end
$scope begin L100[4] $end
$upscope $end
$upscope $end
$scope begin L99[2] $end
$scope begin L100[0] $end
$upscope $end
$scope begin L100[1] $end
$upscope $end
$scope begin L100[2] $end
$upscope $end
$scope begin L100[3] $end
$upscope $end
$scope begin L100[4] $end
$upscope $end
$upscope $end
$scope begin L99[3] $end
$scope begin L100[0] $end
$upscope $end
$scope begin L100[1] $end
$upscope $end
$scope begin L100[2] $end
$upscope $end
$scope begin L100[3] $end
$upscope $end
$scope begin L100[4] $end
$upscope $end
$upscope $end
$scope begin L99[4] $end
$scope begin L100[0] $end
$upscope $end
$scope begin L100[1] $end
$upscope $end
$scope begin L100[2] $end
$upscope $end
$scope begin L100[3] $end
$upscope $end
$scope begin L100[4] $end
$upscope $end
$upscope $end
$upscope $end
$upscope $end
$scope module fifo $end
$var wire 1 % clk $end
$var wire 1 & rd_en $end
$var wire 1 + rst $end
$var wire 1 8 wr_en $end
$var wire 64 W buf_in [63:0] $end
$var reg 1 " buf_empty $end
$var reg 1 B buf_full $end
$var reg 64 X buf_out [63:0] $end
$var reg 7 Y fifo_counter [6:0] $end
$var reg 6 Z rd_ptr [5:0] $end
$var reg 6 [ wr_ptr [5:0] $end
$upscope $end
$scope module pad $end
$var wire 1 % clk $end
$var wire 64 \ in [63:0] $end
$var wire 1 ( in_valid $end
$var wire 1 ) is_last $end
$var wire 2 ] mode [1:0] $end
$var wire 64 ^ out [63:0] $end
$var wire 1 + rst $end
$var wire 1 , start_calc $end
$var wire 1 F takein $end
$var wire 1 A cntr_zero $end
$var reg 1 $ ack $end
$var reg 5 _ cntr [4:0] $end
$var reg 1 ` latch_last $end
$var reg 1 a latch_latch_last $end
$var reg 1 6 out_ready $end
$var reg 64 b pad_out [63:0] $end
$var reg 1 5 takein_reg $end
$upscope $end
$scope module piso $end
$var wire 1 % clk $end
$var wire 1 @ count_zero $end
$var wire 1344 c data_in [1343:0] $end
$var wire 1 < load_en $end
$var wire 1 + rst $end
$var wire 1 3 shift_en $end
$var wire 64 d data_out [63:0] $end
$var reg 1344 e data [1343:0] $end
$var reg 1 8 out_ready $end
$upscope $end
$scope module sipo $end
$var wire 1 % clk $end
$var wire 1 A cntr_zero $end
$var wire 64 f data_in [63:0] $end
$var wire 1 / hash_init $end
$var wire 1 1 load_en $end
$var reg 1344 g data_out [1343:0] $end
$var reg 1 ; is_loaded $end
$var reg 1 h is_loaded_temp $end
$upscope $end
$upscope $end
$scope task error $end
$upscope $end
$upscope $end
$enddefinitions $end
#0
$dumpvars
0h
b0 g
b0 f
b0 e
b0 d
bx c
b0 b
0a
0`
b0 _
b0 ^
b0 ]
b0 \
b0 [
b0 Z
b0 Y
b0 X
b0 W
bx V
bx0000000000000000000000000000000x000000000000000x0000000x000x0xx U
bx T
bx0000000000000000000000000000000x000000000000000x0000000x000x0xx S
bx0 R
bx Q
bx P
bx O
xN
b0 M
bx0000000000000000000000000000000x000000000000000x0000000x000x0xx L
bx K
bx0 J
xI
b0 H
0G
0F
0E
b0 D
b0 C
0B
0A
1@
0?
b0 >
bx =
x<
0;
b0 :
b0 9
08
b0 7
06
05
04
03
b0 2
01
b0 0
1/
0.
bx -
0,
1+
b0 *
0)
0(
b0 '
0&
0%
0$
b0 #
1"
0!
$end
#2000000000000
b0 K
b0 V
b0 L
b0 S
b0 U
0I
b0 Q
b0 T
b0 c
b0 J
b0 R
b0 O
0N
0<
b0 =
b0 P
1%
#4000000000000
0%
#6000000000000
1%
#8000000000000
0%
#9000000000000
1(
b1111000011100001110100101100001110110100101001011001011010000111 '
b1111000011100001110100101100001110110100101001011001011010000111 0
b1111000011100001110100101100001110110100101001011001011010000111 \
b1 *
b1 2
b1 ]
1,
0+
#10000000000000
1F
b1 D
b1 H
b10001 _
1%
#12000000000000
0%
#13000000000000
0/
0,
#14000000000000
11
b10000 _
1$
16
b1111000011100001110100101100001110110100101001011001011010000111 7
b1111000011100001110100101100001110110100101001011001011010000111 ^
b1111000011100001110100101100001110110100101001011001011010000111 f
b1111000011100001110100101100001110110100101001011001011010000111 b
15
1%
#16000000000000
0%
#17000000000000
b1111000111100010110100111100010010110101101001101001011110001000 '
b1111000111100010110100111100010010110101101001101001011110001000 0
b1111000111100010110100111100010010110101101001101001011110001000 \
b0 -
#18000000000000
b1111000111100010110100111100010010110101101001101001011110001000 7
b1111000111100010110100111100010010110101101001101001011110001000 ^
b1111000111100010110100111100010010110101101001101001011110001000 f
b1111000111100010110100111100010010110101101001101001011110001000 b
1$
16
b1111 _
b111100001110000111010010110000111011010010100101100101101000011100000000000000000000000000000000000000000000000000000000000000000000000000000000000000000000000000000000000000000000000000000000000000000000000000000000000000000000000000000000000000000000000000000000000000000000000000000000000000000000000000000000000000000000000000000000000000000000000000000000000000000000000000000000000000000000000000000000000000000000000000000000000000000000000000000000000000000000000000000000000000000000000000000000000000000000000000000000000000000000000000000000000000000000000000000000000000000000000000000000000000000000000000000000000000000000000000000000000000000000000000000000000000000000000000000000000000000000000000000000000000000000000000000000000000000000000000000000000000000000000000000000000000000000000000000000000000000000000000000000000000000000000000000000000000000000000000000000000000000000000000000000000000000000000000000000000000000000000000000000000000000000000000000000000000000000000000000000000000000000000000000000000000000000000000000000000000000000000000000000000000000000000000000000000000000000000000000000000000000000000000000000000000000000000000000000000000000000000000000000000000000000000000000000000000000000000000000000000000000000000000000000000000000000000000000000000000000000000000000000000000000000000000000000 >
b111100001110000111010010110000111011010010100101100101101000011100000000000000000000000000000000000000000000000000000000000000000000000000000000000000000000000000000000000000000000000000000000000000000000000000000000000000000000000000000000000000000000000000000000000000000000000000000000000000000000000000000000000000000000000000000000000000000000000000000000000000000000000000000000000000000000000000000000000000000000000000000000000000000000000000000000000000000000000000000000000000000000000000000000000000000000000000000000000000000000000000000000000000000000000000000000000000000000000000000000000000000000000000000000000000000000000000000000000000000000000000000000000000000000000000000000000000000000000000000000000000000000000000000000000000000000000000000000000000000000000000000000000000000000000000000000000000000000000000000000000000000000000000000000000000000000000000000000000000000000000000000000000000000000000000000000000000000000000000000000000000000000000000000000000000000000000000000000000000000000000000000000000000000000000000000000000000000000000000000000000000000000000000000000000000000000000000000000000000000000000000000000000000000000000000000000000000000000000000000000000000000000000000000000000000000000000000000000000000000000000000000000000000000000000000000000000000000000000000000000000000000000000000000000 M
b111100001110000111010010110000111011010010100101100101101000011100000000000000000000000000000000000000000000000000000000000000000000000000000000000000000000000000000000000000000000000000000000000000000000000000000000000000000000000000000000000000000000000000000000000000000000000000000000000000000000000000000000000000000000000000000000000000000000000000000000000000000000000000000000000000000000000000000000000000000000000000000000000000000000000000000000000000000000000000000000000000000000000000000000000000000000000000000000000000000000000000000000000000000000000000000000000000000000000000000000000000000000000000000000000000000000000000000000000000000000000000000000000000000000000000000000000000000000000000000000000000000000000000000000000000000000000000000000000000000000000000000000000000000000000000000000000000000000000000000000000000000000000000000000000000000000000000000000000000000000000000000000000000000000000000000000000000000000000000000000000000000000000000000000000000000000000000000000000000000000000000000000000000000000000000000000000000000000000000000000000000000000000000000000000000000000000000000000000000000000000000000000000000000000000000000000000000000000000000000000000000000000000000000000000000000000000000000000000000000000000000000000000000000000000000000000000000000000000000000000000000000000000000000000 g
1%
#20000000000000
0%
#21000000000000
b1111001011100011110101001100010110110110101001111001100010001001 '
b1111001011100011110101001100010110110110101001111001100010001001 0
b1111001011100011110101001100010110110110101001111001100010001001 \
b1 -
#22000000000000
b1110 _
b1111001011100011110101001100010110110110101001111001100010001001 7
b1111001011100011110101001100010110110110101001111001100010001001 ^
b1111001011100011110101001100010110110110101001111001100010001001 f
b1111001011100011110101001100010110110110101001111001100010001001 b
1$
16
b111100011110001011010011110001001011010110100110100101111000100011110000111000011101001011000011101101001010010110010110100001110000000000000000000000000000000000000000000000000000000000000000000000000000000000000000000000000000000000000000000000000000000000000000000000000000000000000000000000000000000000000000000000000000000000000000000000000000000000000000000000000000000000000000000000000000000000000000000000000000000000000000000000000000000000000000000000000000000000000000000000000000000000000000000000000000000000000000000000000000000000000000000000000000000000000000000000000000000000000000000000000000000000000000000000000000000000000000000000000000000000000000000000000000000000000000000000000000000000000000000000000000000000000000000000000000000000000000000000000000000000000000000000000000000000000000000000000000000000000000000000000000000000000000000000000000000000000000000000000000000000000000000000000000000000000000000000000000000000000000000000000000000000000000000000000000000000000000000000000000000000000000000000000000000000000000000000000000000000000000000000000000000000000000000000000000000000000000000000000000000000000000000000000000000000000000000000000000000000000000000000000000000000000000000000000000000000000000000000000000000000000000000000000000000000000000000000000000000000000000000000000000000000000000 >
b111100011110001011010011110001001011010110100110100101111000100011110000111000011101001011000011101101001010010110010110100001110000000000000000000000000000000000000000000000000000000000000000000000000000000000000000000000000000000000000000000000000000000000000000000000000000000000000000000000000000000000000000000000000000000000000000000000000000000000000000000000000000000000000000000000000000000000000000000000000000000000000000000000000000000000000000000000000000000000000000000000000000000000000000000000000000000000000000000000000000000000000000000000000000000000000000000000000000000000000000000000000000000000000000000000000000000000000000000000000000000000000000000000000000000000000000000000000000000000000000000000000000000000000000000000000000000000000000000000000000000000000000000000000000000000000000000000000000000000000000000000000000000000000000000000000000000000000000000000000000000000000000000000000000000000000000000000000000000000000000000000000000000000000000000000000000000000000000000000000000000000000000000000000000000000000000000000000000000000000000000000000000000000000000000000000000000000000000000000000000000000000000000000000000000000000000000000000000000000000000000000000000000000000000000000000000000000000000000000000000000000000000000000000000000000000000000000000000000000000000000000000000000000000000 M
b111100011110001011010011110001001011010110100110100101111000100011110000111000011101001011000011101101001010010110010110100001110000000000000000000000000000000000000000000000000000000000000000000000000000000000000000000000000000000000000000000000000000000000000000000000000000000000000000000000000000000000000000000000000000000000000000000000000000000000000000000000000000000000000000000000000000000000000000000000000000000000000000000000000000000000000000000000000000000000000000000000000000000000000000000000000000000000000000000000000000000000000000000000000000000000000000000000000000000000000000000000000000000000000000000000000000000000000000000000000000000000000000000000000000000000000000000000000000000000000000000000000000000000000000000000000000000000000000000000000000000000000000000000000000000000000000000000000000000000000000000000000000000000000000000000000000000000000000000000000000000000000000000000000000000000000000000000000000000000000000000000000000000000000000000000000000000000000000000000000000000000000000000000000000000000000000000000000000000000000000000000000000000000000000000000000000000000000000000000000000000000000000000000000000000000000000000000000000000000000000000000000000000000000000000000000000000000000000000000000000000000000000000000000000000000000000000000000000000000000000000000000000000000000000 g
1%
#24000000000000
0%
#25000000000000
b1111001111100100110101011100011010110111101010001001100110001010 '
b1111001111100100110101011100011010110111101010001001100110001010 0
b1111001111100100110101011100011010110111101010001001100110001010 \
b10 -
#26000000000000
b1111001111100100110101011100011010110111101010001001100110001010 7
b1111001111100100110101011100011010110111101010001001100110001010 ^
b1111001111100100110101011100011010110111101010001001100110001010 f
b1111001111100100110101011100011010110111101010001001100110001010 b
1$
16
b1101 _
b111100101110001111010100110001011011011010100111100110001000100111110001111000101101001111000100101101011010011010010111100010001111000011100001110100101100001110110100101001011001011010000111000000000000000000000000000000000000000000000000000000000000000000000000000000000000000000000000000000000000000000000000000000000000000000000000000000000000000000000000000000000000000000000000000000000000000000000000000000000000000000000000000000000000000000000000000000000000000000000000000000000000000000000000000000000000000000000000000000000000000000000000000000000000000000000000000000000000000000000000000000000000000000000000000000000000000000000000000000000000000000000000000000000000000000000000000000000000000000000000000000000000000000000000000000000000000000000000000000000000000000000000000000000000000000000000000000000000000000000000000000000000000000000000000000000000000000000000000000000000000000000000000000000000000000000000000000000000000000000000000000000000000000000000000000000000000000000000000000000000000000000000000000000000000000000000000000000000000000000000000000000000000000000000000000000000000000000000000000000000000000000000000000000000000000000000000000000000000000000000000000000000000000000000000000000000000000000000000000000000000000000000000000000000000000000000000000000000000000000000000000000000000000000000 >
b111100101110001111010100110001011011011010100111100110001000100111110001111000101101001111000100101101011010011010010111100010001111000011100001110100101100001110110100101001011001011010000111000000000000000000000000000000000000000000000000000000000000000000000000000000000000000000000000000000000000000000000000000000000000000000000000000000000000000000000000000000000000000000000000000000000000000000000000000000000000000000000000000000000000000000000000000000000000000000000000000000000000000000000000000000000000000000000000000000000000000000000000000000000000000000000000000000000000000000000000000000000000000000000000000000000000000000000000000000000000000000000000000000000000000000000000000000000000000000000000000000000000000000000000000000000000000000000000000000000000000000000000000000000000000000000000000000000000000000000000000000000000000000000000000000000000000000000000000000000000000000000000000000000000000000000000000000000000000000000000000000000000000000000000000000000000000000000000000000000000000000000000000000000000000000000000000000000000000000000000000000000000000000000000000000000000000000000000000000000000000000000000000000000000000000000000000000000000000000000000000000000000000000000000000000000000000000000000000000000000000000000000000000000000000000000000000000000000000000000000000000000000000000000000 M
b111100101110001111010100110001011011011010100111100110001000100111110001111000101101001111000100101101011010011010010111100010001111000011100001110100101100001110110100101001011001011010000111000000000000000000000000000000000000000000000000000000000000000000000000000000000000000000000000000000000000000000000000000000000000000000000000000000000000000000000000000000000000000000000000000000000000000000000000000000000000000000000000000000000000000000000000000000000000000000000000000000000000000000000000000000000000000000000000000000000000000000000000000000000000000000000000000000000000000000000000000000000000000000000000000000000000000000000000000000000000000000000000000000000000000000000000000000000000000000000000000000000000000000000000000000000000000000000000000000000000000000000000000000000000000000000000000000000000000000000000000000000000000000000000000000000000000000000000000000000000000000000000000000000000000000000000000000000000000000000000000000000000000000000000000000000000000000000000000000000000000000000000000000000000000000000000000000000000000000000000000000000000000000000000000000000000000000000000000000000000000000000000000000000000000000000000000000000000000000000000000000000000000000000000000000000000000000000000000000000000000000000000000000000000000000000000000000000000000000000000000000000000000000000000 g
1%
#28000000000000
0%
#29000000000000
b1111010011100101110101101100011110111000101010011001101010001011 '
b1111010011100101110101101100011110111000101010011001101010001011 0
b1111010011100101110101101100011110111000101010011001101010001011 \
b11 -
